{
  "count": 576,
  "next": "http://bf7b645636fe.dverso.io/api/games/games/search/?page=2&q=Naruto",
  "previous": null,
  "results": [
    {
      "game_id": 22580,
      "title": "Naruto Konoha Senki",
      "year": "2003-09-12",
      "moby_score": null,
      "esrb_rating": null,
      "main_cover_url": "https://cdn.mobygames.com/screenshots/15891771-naruto-konoha-senki-game-boy-advance-title-screen.png",
      "platforms": [
        "Game Boy Advance"
      ],
      "genres": {
        "Art": [
          "Anime / Manga"
        ],
        "Genre": [
          "Strategy / tactics",
          "Role-playing (RPG)"
        ]
      }
    },
    {
      "game_id": 29895,
      "title": "Naruto: Ninja Council",
      "year": "2003-05-01",
      "moby_score": 6.3,
      "esrb_rating": "Everyone 10+",
      "main_cover_url": "https://cdn.mobygames.com/screenshots/15866465-naruto-ninja-council-game-boy-advance-title-screen.png",
      "platforms": [
        "Game Boy Advance"
      ],
      "genres": {
        "Art": [
          "Anime / Manga"
        ],
        "Misc": [
          "Licensed"
        ],
        "Genre": [
          "Action"
        ],
        "Gameplay": [
          "Fighting"
        ],
        "Perspective": [
          "Side view"
        ]
      }
    },
    {
      "game_id": 47676,
      "title": "Naruto: Ninja Destiny",
      "year": "2006-12-14",
      "moby_score": 6.2,
      "esrb_rating": "Teen",
      "main_cover_url": null,
      "platforms": [
        "Nintendo DS"
      ],
      "genres": {
        "Misc": [
          "Licensed"
        ],
        "Genre": [
          "Action"
        ],
        "Gameplay": [
          "Fighting"
        ],
        "Perspective": [
          "3rd-person (Other)"
        ]
      }
    },
    {
      "game_id": 142955,
      "title": "Nary",
      "year": "2016-08-02",
      "moby_score": null,
      "esrb_rating": null,
      "main_cover_url": "https://cdn.mobygames.com/covers/8865494-nary-windows-front-cover.jpg",
      "platforms": [
        "Windows"
      ],
      "genres": {
        "Genre": [
          "Action"
        ],
        "Gameplay": [
          "Platform"
        ],
        "Interface": [
          "Direct control"
        ],
        "Perspective": [
          "Side view"
        ]
      }
    },
    {
      "game_id": 203033,
      "title": "NARC",
      "year": "1990",
      "moby_score": null,
      "esrb_rating": null,
      "main_cover_url": null,
      "platforms": [
        "Dedicated handheld"
      ],
      "genres": {
        "Genre": [
          "Action"
        ],
        "Gameplay": [
          "Shooter"
        ],
        "Interface": [
          "Direct control"
        ],
        "Narrative": [
          "Crime"
        ],
        "Perspective": [
          "Side view"
        ]
      }
    },
    {
      "game_id": 38521,
      "title": "Naruto: Ultimate Ninja",
      "year": "2003-10-23",
      "moby_score": 7.3,
      "esrb_rating": "Teen",
      "main_cover_url": "https://cdn.mobygames.com/covers/1540936-naruto-ultimate-ninja-playstation-2-front-cover.jpg",
      "platforms": [
        "PlayStation 2"
      ],
      "genres": {
        "Art": [
          "Anime / Manga"
        ],
        "Misc": [
          "Licensed"
        ],
        "Genre": [
          "Action"
        ],
        "Gameplay": [
          "Fighting"
        ],
        "Perspective": [
          "3rd-person (Other)"
        ]
      }
    },
    {
      "game_id": 75505,
      "title": "Naruto: Clash of Ninja",
      "year": "2003-04-11",
      "moby_score": 6.8,
      "esrb_rating": "Teen",
      "main_cover_url": "https://cdn.mobygames.com/covers/1089680-naruto-clash-of-ninja-gamecube-front-cover.jpg",
      "platforms": [
        "GameCube"
      ],
      "genres": {
        "Art": [
          "Anime / Manga"
        ],
        "Misc": [
          "Licensed"
        ],
        "Genre": [
          "Action"
        ],
        "Setting": [
          "Fantasy"
        ],
        "Gameplay": [
          "Fighting"
        ],
        "Interface": [
          "Direct control"
        ],
        "Perspective": [
          "Side view"
        ]
      }
    },
    {
      "game_id": 10327,
      "title": "NARC",
      "year": "1989-01-16",
      "moby_score": 6,
      "esrb_rating": null,
      "main_cover_url": "https://cdn.mobygames.com/covers/2263171-narc-zx-spectrum-front-cover.jpg",
      "platforms": [
        "Amiga",
        "Amstrad CPC",
        "Arcade",
        "Atari ST",
        "Commodore 64",
        "NES",
        "ZX Spectrum"
      ],
      "genres": {
        "Genre": [
          "Action"
        ],
        "Setting": [
          "Contemporary"
        ],
        "Gameplay": [
          "Arcade",
          "Shooter"
        ],
        "Narrative": [
          "Crime"
        ],
        "Perspective": [
          "Side view"
        ]
      }
    },
    {
      "game_id": 18388,
      "title": "NARC",
      "year": "2005-03-21",
      "moby_score": 5.2,
      "esrb_rating": "Mature",
      "main_cover_url": "https://cdn.mobygames.com/covers/4329205-narc-xbox-front-cover.jpg",
      "platforms": [
        "PlayStation 2",
        "Windows",
        "Xbox"
      ],
      "genres": {
        "Genre": [
          "Action"
        ],
        "Setting": [
          "North America",
          "Contemporary"
        ],
        "Gameplay": [
          "Shooter",
          "Beat 'em up / brawler",
          "Stealth"
        ],
        "Interface": [
          "Direct control"
        ],
        "Narrative": [
          "Detective / mystery"
        ],
        "Perspective": [
          "Behind view"
        ]
      }
    },
    {
      "game_id": 42129,
      "title": "Naruto: The Broken Bond",
      "year": "2008-11-18",
      "moby_score": 7.8,
      "esrb_rating": "Teen",
      "main_cover_url": "https://cdn.mobygames.com/covers/5484323-naruto-the-broken-bond-xbox-360-front-cover.jpg",
      "platforms": [
        "Xbox 360"
      ],
      "genres": {
        "Art": [
          "Anime / Manga"
        ],
        "Misc": [
          "Licensed"
        ],
        "Genre": [
          "Action"
        ],
        "Gameplay": [
          "Fighting",
          "Quick Time Events (QTEs)"
        ],
        "Narrative": [
          "Martial arts"
        ]
      }
    },
    {
      "game_id": 32695,
      "title": "Naruto: Rise of a Ninja",
      "year": "2007-10-30",
      "moby_score": 7.7,
      "esrb_rating": "Teen",
      "main_cover_url": "https://cdn.mobygames.com/covers/5155999-naruto-rise-of-a-ninja-xbox-360-front-cover.jpg",
      "platforms": [
        "Xbox 360"
      ],
      "genres": {
        "Art": [
          "Anime / Manga"
        ],
        "Misc": [
          "Licensed"
        ],
        "Genre": [
          "Action",
          "Role-playing (RPG)"
        ],
        "Gameplay": [
          "Puzzle elements",
          "Fighting",
          "Quick Time Events (QTEs)"
        ],
        "Perspective": [
          "3rd-person (Other)"
        ]
      }
    },
    {
      "game_id": 89455,
      "title": "Naruto: Ninja Council 3",
      "year": "2007-05-22",
      "moby_score": 6.3,
      "esrb_rating": "Everyone 10+",
      "main_cover_url": "https://cdn.mobygames.com/covers/3232014-naruto-ninja-council-3-nintendo-ds-front-cover.jpg",
      "platforms": [
        "Nintendo DS"
      ],
      "genres": {
        "Art": [
          "Anime / Manga"
        ],
        "Misc": [
          "Licensed"
        ],
        "Genre": [
          "Action"
        ],
        "Perspective": [
          "Side view",
          "3rd-person (Other)"
        ]
      }
    },
    {
      "game_id": 31108,
      "title": "Naruto: Ninja Council 2",
      "year": "2004-04-29",
      "moby_score": 6.1,
      "esrb_rating": "Everyone 10+",
      "main_cover_url": "https://cdn.mobygames.com/screenshots/15724181-naruto-ninja-council-2-game-boy-advance-intro-gaara.png",
      "platforms": [
        "Game Boy Advance"
      ],
      "genres": {
        "Art": [
          "Anime / Manga"
        ],
        "Misc": [
          "Licensed"
        ],
        "Genre": [
          "Action"
        ],
        "Gameplay": [
          "Fighting"
        ],
        "Perspective": [
          "Side view"
        ]
      }
    },
    {
      "game_id": 141706,
      "title": "Naruto: Ultimate Ninja 3",
      "year": "2005-12-22",
      "moby_score": 7.3,
      "esrb_rating": "Teen",
      "main_cover_url": "https://cdn.mobygames.com/covers/8731205-naruto-ultimate-ninja-3-playstation-2-front-cover.jpg",
      "platforms": [
        "PlayStation 2"
      ],
      "genres": {
        "Art": [
          "Anime / Manga"
        ],
        "Misc": [
          "Licensed"
        ],
        "Genre": [
          "Action"
        ],
        "Gameplay": [
          "Fighting"
        ],
        "Perspective": [
          "3rd-person (Other)"
        ]
      }
    },
    {
      "game_id": 17038,
      "title": "Naruto: Clash of Ninja 2",
      "year": "2003-12-04",
      "moby_score": 7.3,
      "esrb_rating": "Teen",
      "main_cover_url": "https://cdn.mobygames.com/covers/5288797-naruto-clash-of-ninja-2-gamecube-front-cover.jpg",
      "platforms": [
        "GameCube"
      ],
      "genres": {
        "Art": [
          "Anime / Manga"
        ],
        "Misc": [
          "Licensed"
        ],
        "Genre": [
          "Action"
        ],
        "Setting": [
          "Fantasy"
        ],
        "Gameplay": [
          "Fighting"
        ],
        "Interface": [
          "Direct control"
        ],
        "Perspective": [
          "Side view"
        ]
      }
    },
    {
      "game_id": 33133,
      "title": "Naruto: Ultimate Ninja 2",
      "year": "2004-09-30",
      "moby_score": 7.2,
      "esrb_rating": "Teen",
      "main_cover_url": "https://cdn.mobygames.com/covers/181664-naruto-ultimate-ninja-2-playstation-2-front-cover.jpg",
      "platforms": [
        "PlayStation 2"
      ],
      "genres": {
        "Art": [
          "Anime / Manga"
        ],
        "Misc": [
          "Licensed"
        ],
        "Genre": [
          "Action"
        ],
        "Gameplay": [
          "Fighting"
        ],
        "Perspective": [
          "3rd-person (Other)"
        ]
      }
    },
    {
      "game_id": 89456,
      "title": "Naruto: Path of the Ninja",
      "year": "2004-07-22",
      "moby_score": 6.5,
      "esrb_rating": null,
      "main_cover_url": "https://cdn.mobygames.com/screenshots/20569982-naruto-path-of-the-ninja-game-boy-advance-title-screen.png",
      "platforms": [
        "Game Boy Advance",
        "Nintendo DS"
      ],
      "genres": {
        "Art": [
          "Anime / Manga"
        ],
        "Genre": [
          "Role-playing (RPG)"
        ],
        "Perspective": [
          "Top-down",
          "Side view",
          "3rd-person (Other)"
        ]
      }
    },
    {
      "game_id": 150090,
      "title": "Naruto X Boruto Ninja Tribes",
      "year": "2020-03-09",
      "moby_score": null,
      "esrb_rating": null,
      "main_cover_url": "https://cdn.mobygames.com/covers/9523542-naruto-x-boruto-ninja-tribes-android-front-cover.png",
      "platforms": [
        "Android",
        "Browser",
        "iPad",
        "iPhone"
      ],
      "genres": {
        "Art": [
          "Anime / Manga"
        ],
        "Misc": [
          "Licensed"
        ],
        "Genre": [
          "Role-playing (RPG)"
        ],
        "Setting": [
          "Fantasy"
        ],
        "Interface": [
          "Menu structures"
        ],
        "Perspective": [
          "3rd-person (Other)"
        ]
      }
    },
    {
      "game_id": 46792,
      "title": "Narnia",
      "year": "1984",
      "moby_score": null,
      "esrb_rating": null,
      "main_cover_url": "https://cdn.mobygames.com/covers/10014671-narnia-commodore-64-front-cover.jpg",
      "platforms": [
        "Apple II",
        "Commodore 64"
      ],
      "genres": {
        "Misc": [
          "Licensed"
        ],
        "Genre": [
          "Action"
        ],
        "Setting": [
          "Fantasy"
        ],
        "Perspective": [
          "Top-down"
        ]
      }
    },
    {
      "game_id": 227048,
      "title": "Naraku",
      "year": "2024-06-28",
      "moby_score": null,
      "esrb_rating": null,
      "main_cover_url": "https://cdn.mobygames.com/covers/18842630-naraku-windows-front-cover.jpg",
      "platforms": [
        "Windows"
      ],
      "genres": {
        "Art": [
          "Anime / Manga"
        ],
        "Genre": [
          "Action"
        ],
        "Gameplay": [
          "Puzzle elements",
          "Survival horror"
        ],
        "Interface": [
          "Direct control"
        ],
        "Narrative": [
          "Horror"
        ],
        "Perspective": [
          "Diagonal-down"
        ]
      }
    },
    {
      "game_id": 194663,
      "title": "Narvas",
      "year": "2022-09-03",
      "moby_score": null,
      "esrb_rating": null,
      "main_cover_url": "https://cdn.mobygames.com/covers/11103962-narvas-windows-front-cover.jpg",
      "platforms": [
        "Windows"
      ],
      "genres": {
        "Genre": [
          "Action"
        ],
        "Setting": [
          "Sci-fi / futuristic"
        ],
        "Gameplay": [
          "Shooter",
          "Platform",
          "Metroidvania"
        ],
        "Interface": [
          "Direct control"
        ],
        "Perspective": [
          "Side view"
        ]
      }
    },
    {
      "game_id": 89457,
      "title": "Naruto: Path of the Ninja 2",
      "year": "2008-10-15",
      "moby_score": null,
      "esrb_rating": "Everyone 10+",
      "main_cover_url": null,
      "platforms": [
        "Nintendo DS"
      ],
      "genres": {
        "Art": [
          "Anime / Manga"
        ],
        "Genre": [
          "Role-playing (RPG)"
        ],
        "Perspective": [
          "Top-down",
          "Side view",
          "3rd-person (Other)"
        ]
      }
    },
    {
      "game_id": 215154,
      "title": "Naruto: Deep Throat Sakura",
      "year": "2007-12-07",
      "moby_score": null,
      "esrb_rating": null,
      "main_cover_url": "https://cdn.mobygames.com/covers/18072571-naruto-deep-throat-sakura-browser-front-cover.png",
      "platforms": [
        "Browser"
      ],
      "genres": {
        "Art": [
          "Anime / Manga"
        ],
        "Misc": [
          "Fangame"
        ],
        "Genre": [
          "Adventure"
        ],
        "Setting": [
          "Fantasy",
          "Japan (Ancient/Classical/Medieval)"
        ],
        "Gameplay": [
          "Visual novel"
        ],
        "Interface": [
          "Menu structures"
        ],
        "Narrative": [
          "Adult"
        ],
        "Perspective": [
          "Side view"
        ]
      }
    },
    {
      "game_id": 84824,
      "title": "Naruto: Powerful Shippuden",
      "year": "2013-03-08",
      "moby_score": 6.9,
      "esrb_rating": null,
      "main_cover_url": "https://cdn.mobygames.com/covers/2145329-naruto-powerful-shippuden-nintendo-3ds-front-cover.png",
      "platforms": [
        "Nintendo 3DS"
      ],
      "genres": {
        "Art": [
          "Anime / Manga"
        ],
        "Misc": [
          "Licensed"
        ],
        "Genre": [
          "Action"
        ],
        "Gameplay": [
          "Platform"
        ],
        "Perspective": [
          "Side view"
        ]
      }
    }
  ]
}